<svg version="1.1" xmlns="http://www.w3.org/2000/svg" xmlns:xlink="http://www.w3.org/1999/xlink" x="0px" y="0px"
	 width="23.075px" height="20.06px" viewBox="0 0 23.075 20.06" enable-background="new 0 0 23.075 20.06" xml:space="preserve">
<rect x="18" y="6.042" fill="#041121" width="2" height="8"/>
<rect x="15" y="9.042" fill="#041121" width="8" height="2"/>
<rect y="9.042" fill="#041121" width="2" height="2"/>
<g>
	<path fill="#041121" d="M2.587,7.042c1.188-2.931,4.057-5,7.413-5c2.025,0,3.869,0.759,5.279,2h2.707c-1.825-2.425-4.718-4-7.986-4
		c-4.477,0-8.267,2.943-9.541,7H2.587z"/>
	<path fill="#041121" d="M10,18.042c-3.356,0-6.226-2.069-7.413-5H0.459c1.274,4.057,5.064,7,9.541,7c3.269,0,6.161-1.575,7.986-4
		h-2.707C13.869,17.283,12.025,18.042,10,18.042z"/>
</g>
</svg>
