<svg version="1.1" class="menu-icon" xmlns="http://www.w3.org/2000/svg" xmlns:xlink="http://www.w3.org/1999/xlink" x="0px" y="0px"
	 width="18.011px" height="14.035px" viewBox="6.667 8.306 18.011 14.035" enable-background="new 6.667 8.306 18.011 14.035"
	 xml:space="preserve">
	<rect x="22.674" y="20.307" fill="#FFFFFF" width="1.979" height="2.02"/>
	<rect x="14.667" y="14.337" fill="#FFFFFF" width="1.995" height="2.021"/>
	<rect x="18.667" y="14.337" fill="#FFFFFF" width="6.011" height="2.021"/>
	<rect x="6.667" y="8.306" fill="#FFFFFF" width="1.995" height="2.02"/>
	<rect x="6.683" y="20.32" fill="#FFFFFF" width="13.979" height="2.021"/>
	<rect x="6.683" y="14.337" fill="#FFFFFF" width="5.995" height="2.021"/>
	<rect x="10.683" y="8.306" fill="#FFFFFF" width="13.995" height="2.02"/>
</svg>
